{
  "images" : [
    {
      "idiom" : "universal",
      "filename" : "slider-bg-2.pdf",
      "resizing" : {
        "mode" : "3-part-horizontal",
        "center" : {
          "mode" : "tile",
          "width" : 1
        },
        "cap-insets" : {
          "right" : 4,
          "left" : 3
        }
      }
    }
  ],
  "info" : {
    "version" : 1,
    "author" : "xcode"
  },
  "properties" : {
    "preserves-vector-representation" : true
  }
}